got_textmining
…
tokenizing

got_tokens <- got_df %>% 
  unnest_tokens(word, text_full)

# counting words
got_wc <- got_tokens %>% 
  count(word) %>% 
  arrange(-n)
got_wc

## # A tibble: 11,826 x 2
##    word      n
##    <chr> <int>
##  1 the   17988
##  2 and    8997
##  3 to     6640
##  4 a      6461
##  5 of     6200
##  6 he     5166
##  7 his    5161
##  8 was    3904
##  9 her    3659
## 10 you    3267
## #  with 11,816 more rows
…
